0000000039000003901394/05/280000000000000077770000002362400000422450000012312000000000000000000000000000000000000000013940400033.3800          48541
0000000040000004001394/05/280000000000000069764000001196700000237080000011370000000000000000000000000000000000000000013940400021.3940          48541
0000000041000004101394/05/280000000000000002538000000056200000007190000003078000000000000000000000000000000000000000013940400000.7660          48541
0000000043000004301394/05/290000000000000002118000000088400000016410000001382000000000000000000000000000000000000000013940400001.0000          48541
0000000045000004501394/05/280000000000000001468000000031400000001960000001897000000000000000000000000000000000000000013940400000.4100          48541
0000000046000004601394/05/280000000000000000283000000004100000000870000000151000000000000000000000000000000000000000013940400000.1390          48541
0000000047000004701394/05/280000000000000000077000000003700000000690000000092000000000000000000000000000000000000000013940400000.0403          48541
0000000048000004801394/05/290000000000000007971000000653200000155280000000000000000000000000000000000000000000000000013940400004.0000          48541
0000000052000005201394/05/280000000000000000154000000005300000001030000000168000000000000000000000000000000000000000013940400000.0400          48541
0000000053000005301394/05/280000000000000000014000000000500000000090000000006000000000000000000000000000000000000000013940400000.0100          48541
0000000054000005401394/05/280000000000000000014000000000500000000100000000003000000000000000000000000000000000000000013940400000.0100          48541
0000000058000005801394/05/280000000000000000032000000001000000000220000000039000000000000000000000000000000000000000013940400000.1700          48541
0000001060000106001394/05/290000000000000003019000000453700000121500000000000000000000000000000000000000000000000000013940400000.0000          48541
0000001061000106101394/05/290000000000000003706000000749800000219800000000000000000000000000000000000000000000000000013940400000.0000          48541
0000001062000106201394/05/290000000000000004173000000810100000207480000000000000000000000000000000000000000000000000013940400000.0000          48541
0000001063000106301394/05/290000000000000002286000000347100000091080000000000000000000000000000000000000000000000000013940400000.0000          48541
0000001064000106401394/05/290000000000000001262000000016300000002240000000000000000000000000000000000000000000000000013940400008.0000          48541
